# Blender v2.66 (sub 1) OBJ File: ''
# www.blender.org
mtllib cube.mtl
o Cube
v 1.000000 -1.000000 -1.000000
v 1.000000 -1.000000 1.000000
v -1.000000 -1.000000 1.000000
v -1.000000 -1.000000 -1.000000
v 1.000000 1.000000 -0.999999
v 0.999999 1.000000 1.000001
v -1.000000 1.000000 1.000000
v -1.000000 1.000000 -1.000000
v 0.333333 1.000000 1.000000
v -0.333334 1.000000 1.000000
v 0.333333 1.000000 0.376519
v -0.333334 1.000000 0.376519
v 0.333333 0.484871 0.376519
v -0.333334 0.484871 0.376519
v 0.333333 0.484871 -0.319774
v -0.333334 0.484871 -0.319774
v 0.333333 1.000000 -0.319774
v -0.333334 1.000000 -0.319774
usemtl Material
s off
f 1 2 3 4
f 1 5 6 2
f 2 6 9 10 7 3
f 3 7 8 4
f 5 1 4 8
f 10 9 11 12
f 12 11 13 14
f 14 13 15 16
f 16 15 17 18
f 11 17 15 13
f 14 16 18 12
f 17 5 8 18
f 7 12 18 8
f 10 12 7
f 5 11 9 6
f 11 5 17
